^D:\SKILLBOX\PRACTICAL 17\CVECTOR.CPP|D:\SKILLBOX\PRACTICAL 17\PRACTICAL 17.CPP
D:\SKILLBOX\PRACTICAL 17\X64\DEBUG\VC143.PDB
D:\SKILLBOX\PRACTICAL 17\X64\DEBUG\VC143.IDB
D:\SKILLBOX\PRACTICAL 17\X64\DEBUG\PRACTICAL 17.OBJ
D:\SKILLBOX\PRACTICAL 17\X64\DEBUG\CVECTOR.OBJ
^D:\SKILLBOX\PRACTICAL 17\PRACTICAL 17.CPP
D:\SKILLBOX\PRACTICAL 17\X64\DEBUG\VC143.PDB
^D:\SKILLBOX\PRACTICAL 17\CVECTOR.CPP
D:\SKILLBOX\PRACTICAL 17\X64\DEBUG\VC143.PDB
D:\SKILLBOX\PRACTICAL 17\X64\DEBUG\VC143.IDB
D:\SKILLBOX\PRACTICAL 17\X64\DEBUG\CVECTOR.OBJ
